<svg xmlns="http://www.w3.org/2000/svg" xmlns:se="http://svg-edit.googlecode.com" xmlns:xlink="http://www.w3.org/1999/xlink" xmlns:dc="http://purl.org/dc/elements/1.1/" xmlns:cc="http://creativecommons.org/ns#" xmlns:rdf="http://www.w3.org/1999/02/22-rdf-syntax-ns#" xmlns:inkscape="http://www.inkscape.org/namespaces/inkscape" width="777" height="480">
                                    <title>my vector image</title>
                                    <!-- Created with Vector Paint - http://www.vectorpaint.yaks.com/ https://chrome.google.com/webstore/detail/hnbpdiengicdefcjecjbnjnoifekhgdo -->
                                    <rect id="backgroundrect" width="100%" height="100%" x="0" y="0" fill="#FFFFFF" stroke="none"/>
                                <g style="" class="currentLayer"><title>Layer 1</title><path fill="#b6b6b6" stroke="#ffffff" stroke-width="2" stroke-linejoin="round" stroke-dashoffset="" fill-rule="nonzero" marker-start="" marker-mid="" marker-end="" id="svg_1" d="M264.047179468925,33.19617318606949 C204.19946335116907,44.08820702701584 184.33853516825934,93.61996058882136 183.56476147988653,121.91859372198482 C216.49621708248662,124.27085581184758 237.05261843966792,105.90047330728748 245.46262474095278,95.14960157716854 C259.1601679962459,79.90564650045633 262.4997016061095,58.43548311527282 264.0471933717038,33.19617318606949 L264.047179468925,33.19617318606949 zM271.3930245040396,131.036742591325 C228.13281072649028,131.01725584354307 203.98526306338792,148.4970197656608 192.07845479010717,148.68753089712268 C178.41601607993394,147.63508160819123 138.60007953320363,131.8103582325977 115.38745279904523,131.55539516383874 C34.08668877645081,133.95131691354757 10.792744622742426,221.27463568332502 11.801225214353423,258.8251176640636 C18.423527341904617,402.57441721055994 107.16457805312672,439.6755496293677 121.66692602440509,443.1461696416931 C133.2995712759968,445.41344862274997 172.51932837569066,425.4221479938994 201.37077386245437,426.33192350610716 C232.8722301789653,429.57595854145217 254.8855883323124,442.49394077270637 267.5339158208406,441.5902531513647 C283.53619411262065,440.49263253666794 335.7362078155607,398.79336973314076 351.46921686778944,334.5478023280124 C319.74532981170967,308.03375950953694 300.1762211939766,284.00561004706293 298.42356595420995,261.2008518027148 C297.61164300966124,250.89020466940036 313.29977385530276,192.6066063722569 338.31781691782453,176.22609841252884 C341.9286912829703,156.08566507079058 304.76995330850815,130.53005966429782 275.6413835057573,131.10366816370922 C274.20589261759227,131.06550547079263 272.7884892593955,131.0374297121941 271.39301060126286,131.0367288488922 L271.3930245040396,131.036742591325 z" style="color: rgb(0, 0, 0);" class="" stroke-opacity="1" fill-opacity="1"/><foreignObject fill="#b6b6b6" stroke="#ffffff" stroke-width="2" stroke-linejoin="round" stroke-dashoffset="" fill-rule="nonzero" font-size="150" font-family="Georgia, serif" letter-spacing="0" word-spacing="0" marker-start="" marker-mid="" marker-end="" id="svg_3" x="193.80210801176258" y="82.52086199674306" width="614.7972928597861" height="376.47829200768956" style="color: rgb(255, 255, 255); text-align: center;" class="" transform="rotate(0.2727415859699249 609.3931274414194,340.0904846191443) "><p xmlns="http://www.w3.org/1999/xhtml" style="border: none;outline: none;font-size: inherit;line-height: 1em;padding:0;margin:0;">Fashion <div style="border: none;outline: none;font-size: inherit;line-height: 1em;padding:0;margin:0;">App</div></p></foreignObject></g></svg>